Source,destination,type,Message,Length,Count,SubmitTime,DeliveryTime,Id,status
SPEPLS,917021844614,0,aNUPAM IS HERE,0,1,2022-08-09 15:09:30,2022-08-09 15:09:30,MSGID,UNDELIVRD
SPEPLS,917021844614,0,aNUPAM IS HERE,0,1,2022-08-09 15:12:22,2022-08-09 15:12:22,9181a262-17c7-11ed-b21a-646ee0b637c1,PENDING
SPEPLS,917021844614,0,aNUPAM IS HERE,0,1,2022-08-10 11:33:00,2022-08-10 11:33:00,168f27a1-1872-11ed-9741-646ee0b637c1,PENDING
SPEPLS,917021844614,0,aNUPAM IS HERE,0,1,2022-08-10 12:34:29,2022-08-10 12:34:29,ad50a10f-187a-11ed-9741-646ee0b637c1,PENDING
SPEPLS,917021844614,0,aNUPAM IS HERE,0,1,2022-08-10 12:34:57,2022-08-10 12:34:57,be2d01f1-187a-11ed-9741-646ee0b637c1,PENDING
SPEPLS,917021844614,0,aNUPAM IS HERE,0,1,2022-08-10 13:56:48,2022-08-10 13:56:48,2da5efbb-1886-11ed-9741-646ee0b637c1,PENDING
SPEPLS,917021844614,0,aNUPAM IS HERE,0,1,2022-08-11 20:48:30,2022-08-11 20:48:30,db91aa83-1988-11ed-ae9b-646ee0b637c1,PENDING
SPEPLS,917021844614,0,aNUPAM IS HERE,0,1,2022-08-12 11:34:56,2022-08-12 11:34:56,b06ab14f-1a04-11ed-8b7c-646ee0b637c1,PENDING
SPEPLS,917021844614,0,aNUPAM IS HERE,0,1,2022-08-12 11:53:55,2022-08-12 11:53:55,577ef5c5-1a07-11ed-8b7c-646ee0b637c1,PENDING
SPEPLS,917021844614,0,aNUPAM IS HERE,0,1,2022-08-16 17:52:42,2022-08-16 17:52:42,206af85e-1d5e-11ed-a30c-646ee0b637c1,PENDING
SPEPLS,917021844614,0,aNUPAM IS HERE,0,1,2022-08-16 17:53:37,2022-08-16 17:53:37,41386846-1d5e-11ed-a30c-646ee0b637c1,PENDING
SPEPLS,917021844614,0,aNUPAM IS HERE,0,1,2022-08-16 17:58:16,2022-08-16 17:58:16,e77df05b-1d5e-11ed-a30c-646ee0b637c1,PENDING
SPEPLS,917021844614,0,aNUPAM IS HERE,0,1,2022-08-16 17:58:46,2022-08-16 17:58:46,f9305c78-1d5e-11ed-a30c-646ee0b637c1,PENDING
SPEPLS,917021844614,0,aNUPAM IS HERE,0,1,2022-08-16 18:15:40,2022-08-16 18:15:40,55dceb02-1d61-11ed-a30c-646ee0b637c1,PENDING
SPEPLS,9170218446141,0,aNUPAM IS HERE,0,1,2022-08-16 18:15:47,2022-08-16 18:15:47,59d1b3b8-1d61-11ed-a30c-646ee0b637c1,PENDING
SPEPLS,9170218446141,0,aNUPAM IS HERE,0,1,2022-08-16 18:15:48,2022-08-16 18:15:48,5aa3ff66-1d61-11ed-a30c-646ee0b637c1,PENDING
SPEPLS,9170218446141,0,aNUPAM IS HERE,0,1,2022-08-16 18:16:10,2022-08-16 18:16:10,678e4b8e-1d61-11ed-a30c-646ee0b637c1,PENDING
SPEPLS,9170218446141,0,aNUPAM IS HERE,0,1,2022-08-16 18:16:20,2022-08-16 18:16:20,6db1d348-1d61-11ed-a30c-646ee0b637c1,PENDING
SPEPLS,917021844614,0,aNUPAM IS HERE,0,1,2022-08-16 18:16:39,2022-08-16 18:16:39,789e508d-1d61-11ed-a30c-646ee0b637c1,PENDING
SPEPLS,917021844614,0,aNUPAM IS HERE,0,1,2022-08-16 18:29:04,2022-08-16 18:29:04,352650f9-1d63-11ed-a30c-646ee0b637c1,PENDING
SPEPLS,917021844614,0,aNUPAM IS HERE,0,1,2022-08-16 18:29:06,2022-08-16 18:29:06,363d8c69-1d63-11ed-a30c-646ee0b637c1,PENDING
SPEPLS,917021844614,0,aNUPAM IS HERE,0,1,2022-08-16 18:30:16,2022-08-16 18:30:16,5fc6f40f-1d63-11ed-a30c-646ee0b637c1,PENDING
SPEPLS,917021844614,0,aNUPAM IS HERE,0,1,2022-08-16 18:31:08,2022-08-16 18:31:08,7ef8ff11-1d63-11ed-a30c-646ee0b637c1,PENDING
SPEPLS,917021844614,0,aNUPAM IS HERE,0,1,2022-08-16 18:31:51,2022-08-16 18:31:51,988f440e-1d63-11ed-a30c-646ee0b637c1,PENDING
SPEPLS,917021844614,0,aNUPAM IS HERE,0,1,2022-08-16 18:31:53,2022-08-16 18:31:53,99d59ea5-1d63-11ed-a30c-646ee0b637c1,PENDING
SPEPLS,917021844614,0,aNUPAM IS HERE,0,1,2022-08-16 18:36:51,2022-08-16 18:36:51,4b19da9d-1d64-11ed-a30c-646ee0b637c1,PENDING
SPEPLS,917021844614,0,aNUPAM IS HERE,0,1,2022-08-16 18:36:53,2022-08-16 18:36:53,4c670dc8-1d64-11ed-a30c-646ee0b637c1,PENDING
SPEPLS,917021844614,0,aNUPAM IS HERE,0,1,2022-08-16 18:37:14,2022-08-16 18:37:14,59030a9a-1d64-11ed-a30c-646ee0b637c1,PENDING
SPEPLS,917021844614,0,aNUPAM IS HERE,0,1,2022-08-16 18:37:15,2022-08-16 18:37:15,599270cc-1d64-11ed-a30c-646ee0b637c1,PENDING
SPEPLS,917021844614,0,aNUPAM IS HERE,0,1,2022-08-16 18:38:41,2022-08-16 18:38:41,8cb1eee8-1d64-11ed-a30c-646ee0b637c1,PENDING
SPEPLS,917021844614,0,aNUPAM IS HERE,0,1,2022-08-16 18:38:42,2022-08-16 18:38:42,8d6e4978-1d64-11ed-a30c-646ee0b637c1,PENDING
SPEPLS,917021844614,0,aNUPAM IS HERE,0,1,2022-08-16 18:38:43,2022-08-16 18:38:43,8e163109-1d64-11ed-a30c-646ee0b637c1,PENDING
SPEPLS,917021844614,0,aNUPAM IS HERE,0,1,2022-08-16 18:39:25,2022-08-16 18:39:25,a6e94e8a-1d64-11ed-a30c-646ee0b637c1,PENDING
SPEPLS,917021844614,0,aNUPAM IS HERE,0,1,2022-08-16 18:40:11,2022-08-16 18:40:11,c23d24e2-1d64-11ed-a30c-646ee0b637c1,PENDING
SPEPLS,917021844614,0,aNUPAM IS HERE,0,1,2022-08-16 18:41:22,2022-08-16 18:41:22,ece92af8-1d64-11ed-a30c-646ee0b637c1,PENDING
SPEPLS,917021844614,0,aNUPAM IS HERE,0,1,2022-08-16 18:41:23,2022-08-16 18:41:23,ed6a5042-1d64-11ed-a30c-646ee0b637c1,PENDING
SPEPLS,917021844614,0,aNUPAM IS HERE,0,1,2022-08-16 18:41:23,2022-08-16 18:41:23,eda9c53c-1d64-11ed-a30c-646ee0b637c1,PENDING
SPEPLS,917021844614,0,aNUPAM IS HERE,0,1,2022-08-16 18:41:24,2022-08-16 18:41:24,ede86f4c-1d64-11ed-a30c-646ee0b637c1,PENDING
SPEPLS,917021844614,0,aNUPAM IS HERE,0,1,2022-08-16 18:41:24,2022-08-16 18:41:24,ee256f87-1d64-11ed-a30c-646ee0b637c1,PENDING
SPEPLS,917021844614,0,aNUPAM IS HERE,0,1,2022-08-16 18:41:45,2022-08-16 18:41:45,fab11b84-1d64-11ed-a30c-646ee0b637c1,PENDING
c,917021844614,0,1234,0,1,2022-08-16 18:49:29,2022-08-16 18:49:29,0f347906-1d66-11ed-a30c-646ee0b637c1,PENDING
SPEPLS,917021844614,0,aNUPAM IS HERE,0,1,2022-08-16 18:59:29,2022-08-16 18:59:29,746cd140-1d67-11ed-a30c-646ee0b637c1,PENDING
SPEPLS,917021844614,0,aNUPAM IS HERE,0,1,2022-08-16 18:59:30,2022-08-16 18:59:30,7595b7b9-1d67-11ed-a30c-646ee0b637c1,PENDING
SPEPLS,917021844614,0,aNUPAM IS HERE,0,1,2022-08-16 19:00:20,2022-08-16 19:00:20,92e53593-1d67-11ed-a30c-646ee0b637c1,PENDING
c,917021844614,0,1234,0,1,2022-08-16 19:08:10,2022-08-16 19:08:10,ab3ec005-1d68-11ed-a30c-646ee0b637c1,PENDING
SPEPLS,917021844614,0,aNUPAM IS HERE,0,1,2022-08-17 11:26:18,2022-08-17 11:26:18,4fbfc87b-1df1-11ed-b146-646ee0b637c1,PENDING
SPEPLS,917021844614,0,aNUPAM IS HERE,0,1,2022-08-17 11:52:30,2022-08-17 11:52:30,f91057f5-1df4-11ed-b146-646ee0b637c1,PENDING
SPEPLS,917021844614,0,aNUPAM IS HERE,0,1,2022-08-17 11:52:31,2022-08-17 11:52:31,f9b7cd76-1df4-11ed-b146-646ee0b637c1,PENDING
SPEPLS,917021844614,0,aNUPAM IS HERE,0,1,2022-08-17 11:52:32,2022-08-17 11:52:32,fa3aa636-1df4-11ed-b146-646ee0b637c1,PENDING
SPEPLS,917021844614,0,aNUPAM IS HERE,0,1,2022-08-17 11:52:33,2022-08-17 11:52:33,fafe43c9-1df4-11ed-b146-646ee0b637c1,PENDING
SPEPLS,917021844614,0,aNUPAM IS HERE,0,1,2022-08-17 11:53:08,2022-08-17 11:53:08,0fedd425-1df5-11ed-b146-646ee0b637c1,PENDING
SPEPLS,917021844614,0,aNUPAM IS HERE,0,1,2022-08-17 11:53:11,2022-08-17 11:53:11,11678850-1df5-11ed-b146-646ee0b637c1,PENDING
SPEPLS,917021844614,0,aNUPAM IS HERE,0,1,2022-08-17 11:54:58,2022-08-17 11:54:58,5133fa41-1df5-11ed-b146-646ee0b637c1,PENDING
SPEPLS,917021844614,0,aNUPAM IS HERE,0,1,2022-08-17 11:59:51,2022-08-17 11:59:51,ffce47a7-1df5-11ed-b146-646ee0b637c1,PENDING
SPEPLS,917021844614,0,aNUPAM IS HERE,0,1,2022-08-17 14:17:24,2022-08-17 14:17:24,3734a144-1e09-11ed-b146-646ee0b637c1,PENDING
SPEPLS,917021844614,0,aNUPAM IS HERE,0,1,2022-08-17 14:17:35,2022-08-17 14:17:35,3d9bf8d7-1e09-11ed-b146-646ee0b637c1,PENDING
SPEPLS,917021844614,0,aNUPAM IS HERE,0,1,2022-08-17 14:18:22,2022-08-17 14:18:22,59b19c82-1e09-11ed-b146-646ee0b637c1,PENDING
"",917021844614,0,aNUPAM IS HERE,0,1,2022-08-17 14:18:27,2022-08-17 14:18:27,5ccc383c-1e09-11ed-b146-646ee0b637c1,PENDING
SPEPLS,9170218446141,0,aNUPAM IS HERE,0,1,2022-08-17 14:18:55,2022-08-17 14:18:55,6cf7d3db-1e09-11ed-b146-646ee0b637c1,PENDING
SPEPLS,917021844614,0,aNUPAM IS HERE,0,1,2022-08-17 14:21:02,2022-08-17 14:21:02,b8fa690d-1e09-11ed-b146-646ee0b637c1,PENDING
SPEPLS,916021844614,0,aNUPAM IS HERE,0,1,2022-08-17 14:21:24,2022-08-17 14:21:24,c606526c-1e09-11ed-b146-646ee0b637c1,PENDING
c,917021844614,0,1234hello,0,1,2022-08-17 15:02:39,2022-08-17 15:02:39,89865cf1-1e0f-11ed-b146-646ee0b637c1,PENDING
SPEPLS,917021844614,0,aNUPAM IS HERE,0,1,2022-08-17 17:12:33,2022-08-17 17:12:33,aed6ca16-1e21-11ed-b146-646ee0b637c1,PENDING
SPEPLS,917021844614,0,aNUPAM IS HERE,0,1,2022-08-17 17:12:51,2022-08-17 17:12:51,b9c01b46-1e21-11ed-b146-646ee0b637c1,PENDING
SPEPLS,917021844614,0,aNUPAM IS HERE,0,1,2022-08-17 17:13:00,2022-08-17 17:13:00,bf013d14-1e21-11ed-b146-646ee0b637c1,PENDING
SPEPLS,917021844614,0," hello",0,1,2022-08-17 17:17:41,2022-08-17 17:17:41,669acb86-1e22-11ed-b146-646ee0b637c1,PENDING
SPEPLS,917021844614,0,aNUPAM IS HERE,0,1,2022-08-17 17:26:19,2022-08-17 17:26:19,9b05fb2d-1e23-11ed-b146-646ee0b637c1,PENDING
SPEPLS,917021844614,0,aNUPAM IS HERE,0,1,2022-08-17 17:53:32,2022-08-17 17:53:32,68898fdf-1e27-11ed-b146-646ee0b637c1,PENDING
TLIGHT,917021844614,0," Hello TCL",0,1,2022-08-18 11:27:33,2022-08-18 11:27:33,a750b917-1eba-11ed-ab62-646ee0b637c1,PENDING
SPEPLS,917021844614,0,aNUPAM IS HERE,0,1,2022-08-19 12:52:23,2022-08-19 12:52:23,ab6fca2a-1f8f-11ed-902a-646ee0b637c1,PENDING
TLIGHT,919599269540,0," Hello TCL",0,1,2022-08-20 12:26:42,2022-08-20 12:26:42,3f73e691-2055-11ed-9e3f-646ee0b637c1,PENDING
TLIGHT,917021844614,0," Hello TCL from Vibha",0,1,2022-08-21 21:34:52,2022-08-21 21:34:52,fd9078d0-216a-11ed-8621-646ee0b637c1,PENDING
TLIGHT,917021844614,0," Hello TCL",0,1,2022-08-23 19:13:59,2022-08-23 19:13:59,a424f388-22e9-11ed-bcd7-646ee0b637c1,PENDING
TLIGHT,918425926407,0," Hello TCL",0,1,2022-08-24 15:37:42,2022-08-24 15:37:42,97be1b96-2394-11ed-b49e-646ee0b637c1,PENDING
TLIGHT,917623562356,0," Hello TCL",0,1,2022-08-24 17:59:42,2022-08-24 17:59:42,6dc381ad-23a8-11ed-b49e-646ee0b637c1,PENDING
SPEPLS,917021844614,0,aNUPAM IS HERE,0,1,2022-09-05 16:58:24,2022-09-05 16:58:24,da85afe0-2d0d-11ed-9297-646ee0b637c1,PENDING
SPEPLS,917021844614,0,aNUPAM IS HERE,0,1,2022-09-12 16:25:10,2022-09-12 16:25:10,5ec74e59-3289-11ed-b048-646ee0b637c1,PENDING
SPEPLS,917021844614,0,aNUPAM IS HERE,0,1,2022-09-12 16:27:19,2022-09-12 16:27:19,ac26761a-3289-11ed-b048-646ee0b637c1,PENDING
anu,917021844614,0,aNUPAM IS HERE,2,1,2022-09-15 14:04:13,2022-09-15 14:04:13,0,200
anu,917021844614,0,aNUPAM IS HERE,2,1,2022-09-15 14:04:34,2022-09-15 14:04:34,0,200
anu,917021844614,0,aNUPAM IS HERE,2,1,2022-09-15 14:05:28,2022-09-15 14:05:28,0,200
anu,917021844614,0,aNUPAM IS HERE,2,1,2022-09-15 14:11:07,2022-09-15 14:11:07,0,200
anu,917021844614,0,aNUPAM IS HERE,2,1,2022-09-15 14:27:08,2022-09-15 14:27:08,0,200
